…
lets start with a for loop

``` r
output = vector("list", length = 100)

for (i in 1:100) {
  
  output[[i]] = sim_mean_sd(samp_size = 30)
}

bind_rows(output)
```

    ## # A tibble: 100 × 2
    ##     mean    sd
    ##    <dbl> <dbl>
    ##  1  2.94  3.09
    ##  2  4.27  3.65
    ##  3  4.35  4.32
    ##  4  2.49  4.64
    ##  5  2.73  3.46
    ##  6  1.57  3.71
    ##  7  1.95  4.25
    ##  8  2.88  3.74
    ##  9  3.29  4.58
    ## 10  3.14  4.58
    ## # … with 90 more rows
    ## # ℹ Use `print(n = ...)` to see more rows
…
